{
  "development": {
    "username": "postgres",
    "password": "b4s4r4",
    "database": "jwt_dev",
    "host": "127.0.0.1",
    "dialect": "postgres"
  },
  "test": {
    "username": "postgres",
    "password": "b4s4r4",
    "database": "jwt_test",
    "host": "127.0.0.1",
    "dialect": "postgres"
  },
  "production": {
    "username": "root",
    "password": null,
    "database": "database_production",
    "host": "127.0.0.1",
    "dialect": "mysql"
  }
}
